TP1, Modelo Lineal
…
muestras_maestras

## # A tibble: 175 x 3
##    n_sim distr_eps    muestra          
##    <int> <chr>        <list>           
##  1     1 chi_cuadrado <tibble [25 × 6]>
##  2     1 exponencial  <tibble [25 × 6]>
##  3     1 lognormal    <tibble [25 × 6]>
##  4     1 normal       <tibble [25 × 6]>
##  5     1 student1     <tibble [25 × 6]>
##  6     1 student3     <tibble [25 × 6]>
##  7     1 uniforme     <tibble [25 × 6]>
##  8     2 chi_cuadrado <tibble [25 × 6]>
##  9     2 exponencial  <tibble [25 × 6]>
## 10     2 lognormal    <tibble [25 × 6]>
## # … with 165 more rows

#El '-3' es poco legible, buscar cómo sustraer una columna por nombre.

muestras_puntuales <- muestras_maestras[-3] %>%
  crossing(
    n = n_muestrales
  )

muestras_puntuales

## # A tibble: 350 x 3
##    n_sim distr_eps        n
##    <int> <chr>        <dbl>
##  1     1 chi_cuadrado    10
##  2     1 chi_cuadrado    25
##  3     1 exponencial     10
##  4     1 exponencial     25
##  5     1 lognormal       10
##  6     1 lognormal       25
##  7     1 normal          10
##  8     1 normal          25
##  9     1 student1        10
## 10     1 student1        25
## # … with 340 more rows
…
